<?xml version="1.0" encoding="UTF-8"?>
<session version="1.0">
<refactoring comment="Rename package &apos;com.example.UseMe.Const&apos; to &apos;com.example.UseMe.Constants&apos;&#x0A;- Original project: &apos;UseMe&apos;&#x0A;- Original element: &apos;UseMe/src/main/java/com.example.UseMe.Const&apos;&#x0A;- Renamed element: &apos;UseMe/src/main/java/com.example.UseMe.Constants&apos;&#x0A;- Update references to refactored element&#x0A;- Update textual occurrences in comments and strings" description="Rename package &apos;com.example.UseMe.Const&apos;" flags="589830" hierarchical="false" id="org.eclipse.jdt.ui.rename.package" input="/src\/main\/java&lt;com.example.UseMe.Const" name="com.example.UseMe.Constants" qualified="false" references="true" stamp="1554808112413" textual="false" version="1.0"/>
</session>